isim.log
ISim log file
Running: /home/ise/ao/ao_tb_isim_beh.exe -intstyle ise -gui -tclbatch isim.cmd -wdb /home/ise/ao/ao_tb_isim_beh.wdb 
ISim P.20131013 (signature 0xfbc00daa)
----------------------------------------------------------------------
WARNING:Security:42 - Your software subscription period has lapsed. Your current version of Xilinx tools will continue to function, but you no longer qualify for Xilinx software updates or new releases.


----------------------------------------------------------------------
This is a Full version of ISim.
Time resolution is 1 ps
# onerror resume
# wave add /
# run 1000 ns
Simulator is doing circuit initialization process.
Time	SW	Error	Ctrl_X	Ctrl_Y
Finished circuit initialization process.
Time=55000 | Error=0 | P=0 | I=0 | D=0 | Out=0
Time=55000 | Error=0 | P=0 | I=0 | D=0 | Out=0
65000	   0	     0	     0	     0
Time=65000 | Error=0 | P=0 | I=0 | D=0 | Out=0
Time=65000 | Error=0 | P=0 | I=0 | D=0 | Out=0
75000	   0	     0	     0	     0
Time=75000 | Error=0 | P=0 | I=0 | D=0 | Out=0
Time=75000 | Error=0 | P=0 | I=0 | D=0 | Out=0
85000	   0	     0	     0	     0
Time=85000 | Error=0 | P=0 | I=0 | D=0 | Out=0
Time=85000 | Error=0 | P=0 | I=0 | D=0 | Out=0
95000	   0	     0	     0	     0
Time=95000 | Error=0 | P=0 | I=0 | D=0 | Out=0
Time=95000 | Error=0 | P=0 | I=0 | D=0 | Out=0
105000	   0	     0	     0	     0
Time=105000 | Error=0 | P=0 | I=0 | D=0 | Out=0
Time=105000 | Error=0 | P=0 | I=0 | D=0 | Out=0
115000	   0	     0	     0	     0
Time=115000 | Error=0 | P=0 | I=0 | D=0 | Out=0
Time=115000 | Error=0 | P=0 | I=0 | D=0 | Out=0
125000	   0	     0	     0	     0
Time=125000 | Error=0 | P=0 | I=0 | D=0 | Out=0
Time=125000 | Error=0 | P=0 | I=0 | D=0 | Out=0
135000	   0	     0	     0	     0
Time=135000 | Error=0 | P=0 | I=0 | D=0 | Out=0
Time=135000 | Error=0 | P=0 | I=0 | D=0 | Out=0
145000	   0	     0	     0	     0
Time=145000 | Error=0 | P=0 | I=0 | D=0 | Out=0
Time=145000 | Error=0 | P=0 | I=0 | D=0 | Out=0
155000	  20	  5120	     0	     0
Time=155000 | Error=5120 | P=0 | I=0 | D=0 | Out=0
Time=155000 | Error=5120 | P=0 | I=0 | D=0 | Out=0
165000	  20	  5120	     0	     0
Time=165000 | Error=5120 | P=655360 | I=40960 | D=40960 | Out=0
Time=165000 | Error=5120 | P=655360 | I=40960 | D=40960 | Out=0
175000	  20	  5120	     0	     0
Time=175000 | Error=5120 | P=655360 | I=40960 | D=0 | Out=0
Time=175000 | Error=5120 | P=655360 | I=40960 | D=0 | Out=0
185000	  20	  5120	 32767	 32767
Time=185000 | Error=5120 | P=655360 | I=40960 | D=0 | Out=32767
Time=185000 | Error=5120 | P=655360 | I=40960 | D=0 | Out=32767
195000	  20	  5120	 32767	 32767
Time=195000 | Error=5120 | P=655360 | I=40960 | D=0 | Out=32767
Time=195000 | Error=5120 | P=655360 | I=40960 | D=0 | Out=32767
205000	  20	  5120	 32767	 32767
Time=205000 | Error=5120 | P=655360 | I=40960 | D=0 | Out=32767
Time=205000 | Error=5120 | P=655360 | I=40960 | D=0 | Out=32767
215000	  20	  5120	 32767	 32767
Time=215000 | Error=5120 | P=655360 | I=40960 | D=0 | Out=32767
Time=215000 | Error=5120 | P=655360 | I=40960 | D=0 | Out=32767
225000	  20	  5120	 32767	 32767
Time=225000 | Error=5120 | P=655360 | I=40960 | D=0 | Out=32767
Time=225000 | Error=5120 | P=655360 | I=40960 | D=0 | Out=32767
235000	  20	  5120	 32767	 32767
Time=235000 | Error=5120 | P=655360 | I=40960 | D=0 | Out=32767
Time=235000 | Error=5120 | P=655360 | I=40960 | D=0 | Out=32767
245000	  20	  5120	 32767	 32767
Time=245000 | Error=5120 | P=655360 | I=40960 | D=0 | Out=32767
Time=245000 | Error=5120 | P=655360 | I=40960 | D=0 | Out=32767
255000	  20	  5120	 32767	 32767
Time=255000 | Error=5120 | P=655360 | I=40960 | D=0 | Out=32767
Time=255000 | Error=5120 | P=655360 | I=40960 | D=0 | Out=32767
265000	  20	  5120	 32767	 32767
Time=265000 | Error=5120 | P=655360 | I=40960 | D=0 | Out=32767
Time=265000 | Error=5120 | P=655360 | I=40960 | D=0 | Out=32767
275000	  20	  5120	 32767	 32767
Time=275000 | Error=5120 | P=655360 | I=40960 | D=0 | Out=32767
Time=275000 | Error=5120 | P=655360 | I=40960 | D=0 | Out=32767
285000	  20	  5120	 32767	 32767
Time=285000 | Error=5120 | P=655360 | I=40960 | D=0 | Out=32767
Time=285000 | Error=5120 | P=655360 | I=40960 | D=0 | Out=32767
295000	  20	  5120	 32767	 32767
Time=295000 | Error=5120 | P=655360 | I=40960 | D=0 | Out=32767
Time=295000 | Error=5120 | P=655360 | I=40960 | D=0 | Out=32767
305000	  20	  5120	 32767	 32767
Time=305000 | Error=5120 | P=655360 | I=40960 | D=0 | Out=32767
Time=305000 | Error=5120 | P=655360 | I=40960 | D=0 | Out=32767
315000	  20	  5120	 32767	 32767
Time=315000 | Error=5120 | P=655360 | I=40960 | D=0 | Out=32767
Time=315000 | Error=5120 | P=655360 | I=40960 | D=0 | Out=32767
325000	  20	  5120	 32767	 32767
Time=325000 | Error=5120 | P=655360 | I=40960 | D=0 | Out=32767
Time=325000 | Error=5120 | P=655360 | I=40960 | D=0 | Out=32767
335000	  20	  5120	 32767	 32767
Time=335000 | Error=5120 | P=655360 | I=40960 | D=0 | Out=32767
Time=335000 | Error=5120 | P=655360 | I=40960 | D=0 | Out=32767
345000	  20	  5120	 32767	 32767
Time=345000 | Error=5120 | P=655360 | I=40960 | D=0 | Out=32767
Time=345000 | Error=5120 | P=655360 | I=40960 | D=0 | Out=32767
355000	 -20	 -5120	 32767	 32767
Time=355000 | Error=-5120 | P=655360 | I=40960 | D=0 | Out=32767
Time=355000 | Error=-5120 | P=655360 | I=40960 | D=0 | Out=32767
365000	 -20	 -5120	 32767	 32767
Time=365000 | Error=-5120 | P=-655360 | I=-40960 | D=-81920 | Out=32767
Time=365000 | Error=-5120 | P=-655360 | I=-40960 | D=-81920 | Out=32767
375000	 -20	 -5120	 32767	 32767
Time=375000 | Error=-5120 | P=-655360 | I=-40960 | D=0 | Out=32767
Time=375000 | Error=-5120 | P=-655360 | I=-40960 | D=0 | Out=32767
385000	 -20	 -5120	 32767	 32767
Time=385000 | Error=-5120 | P=-655360 | I=-40960 | D=0 | Out=32767
Time=385000 | Error=-5120 | P=-655360 | I=-40960 | D=0 | Out=32767
395000	 -20	 -5120	 32767	 32767
Time=395000 | Error=-5120 | P=-655360 | I=-40960 | D=0 | Out=32767
Time=395000 | Error=-5120 | P=-655360 | I=-40960 | D=0 | Out=32767
405000	 -20	 -5120	 32767	 32767
Time=405000 | Error=-5120 | P=-655360 | I=-40960 | D=0 | Out=32767
Time=405000 | Error=-5120 | P=-655360 | I=-40960 | D=0 | Out=32767
415000	 -20	 -5120	 32767	 32767
Time=415000 | Error=-5120 | P=-655360 | I=-40960 | D=0 | Out=32767
Time=415000 | Error=-5120 | P=-655360 | I=-40960 | D=0 | Out=32767
425000	 -20	 -5120	 32767	 32767
Time=425000 | Error=-5120 | P=-655360 | I=-40960 | D=0 | Out=32767
Time=425000 | Error=-5120 | P=-655360 | I=-40960 | D=0 | Out=32767
435000	 -20	 -5120	 32767	 32767
Time=435000 | Error=-5120 | P=-655360 | I=-40960 | D=0 | Out=32767
Time=435000 | Error=-5120 | P=-655360 | I=-40960 | D=0 | Out=32767
445000	 -20	 -5120	 32767	 32767
Time=445000 | Error=-5120 | P=-655360 | I=-40960 | D=0 | Out=32767
Time=445000 | Error=-5120 | P=-655360 | I=-40960 | D=0 | Out=32767
455000	 -20	 -5120	 32767	 32767
Time=455000 | Error=-5120 | P=-655360 | I=-40960 | D=0 | Out=32767
Time=455000 | Error=-5120 | P=-655360 | I=-40960 | D=0 | Out=32767
465000	 -20	 -5120	-32768	-32768
Time=465000 | Error=-5120 | P=-655360 | I=-40960 | D=0 | Out=-32768
Time=465000 | Error=-5120 | P=-655360 | I=-40960 | D=0 | Out=-32768
475000	 -20	 -5120	-32768	-32768
Time=475000 | Error=-5120 | P=-655360 | I=-40960 | D=0 | Out=-32768
Time=475000 | Error=-5120 | P=-655360 | I=-40960 | D=0 | Out=-32768
485000	 -20	 -5120	-32768	-32768
Time=485000 | Error=-5120 | P=-655360 | I=-40960 | D=0 | Out=-32768
Time=485000 | Error=-5120 | P=-655360 | I=-40960 | D=0 | Out=-32768
495000	 -20	 -5120	-32768	-32768
Time=495000 | Error=-5120 | P=-655360 | I=-40960 | D=0 | Out=-32768
Time=495000 | Error=-5120 | P=-655360 | I=-40960 | D=0 | Out=-32768
505000	 -20	 -5120	-32768	-32768
Time=505000 | Error=-5120 | P=-655360 | I=-40960 | D=0 | Out=-32768
Time=505000 | Error=-5120 | P=-655360 | I=-40960 | D=0 | Out=-32768
515000	 -20	 -5120	-32768	-32768
Time=515000 | Error=-5120 | P=-655360 | I=-40960 | D=0 | Out=-32768
Time=515000 | Error=-5120 | P=-655360 | I=-40960 | D=0 | Out=-32768
525000	 -20	 -5120	-32768	-32768
Time=525000 | Error=-5120 | P=-655360 | I=-40960 | D=0 | Out=-32768
Time=525000 | Error=-5120 | P=-655360 | I=-40960 | D=0 | Out=-32768
535000	 -20	 -5120	-32768	-32768
Time=535000 | Error=-5120 | P=-655360 | I=-40960 | D=0 | Out=-32768
Time=535000 | Error=-5120 | P=-655360 | I=-40960 | D=0 | Out=-32768
545000	 -20	 -5120	 32767	 32767
Time=545000 | Error=-5120 | P=-655360 | I=-40960 | D=0 | Out=32767
Time=545000 | Error=-5120 | P=-655360 | I=-40960 | D=0 | Out=32767
555000	  10	  2560	 32767	 32767
Time=555000 | Error=2560 | P=-655360 | I=-40960 | D=0 | Out=32767
Time=555000 | Error=2560 | P=-655360 | I=-40960 | D=0 | Out=32767
565000	  10	  2560	 32767	 32767
Time=565000 | Error=2560 | P=327680 | I=20480 | D=61440 | Out=32767
Time=565000 | Error=2560 | P=327680 | I=20480 | D=61440 | Out=32767
575000	  10	  2560	 32767	 32767
Time=575000 | Error=2560 | P=327680 | I=20480 | D=0 | Out=32767
Time=575000 | Error=2560 | P=327680 | I=20480 | D=0 | Out=32767
585000	  10	  2560	 32767	 32767
Time=585000 | Error=2560 | P=327680 | I=20480 | D=0 | Out=32767
Time=585000 | Error=2560 | P=327680 | I=20480 | D=0 | Out=32767
595000	  10	  2560	 32767	 32767
Time=595000 | Error=2560 | P=327680 | I=20480 | D=0 | Out=32767
Time=595000 | Error=2560 | P=327680 | I=20480 | D=0 | Out=32767
605000	  10	  2560	 32767	 32767
Time=605000 | Error=2560 | P=327680 | I=20480 | D=0 | Out=32767
Time=605000 | Error=2560 | P=327680 | I=20480 | D=0 | Out=32767
615000	  10	  2560	 32767	 32767
Time=615000 | Error=2560 | P=327680 | I=20480 | D=0 | Out=32767
Time=615000 | Error=2560 | P=327680 | I=20480 | D=0 | Out=32767
625000	  10	  2560	 32767	 32767
Time=625000 | Error=2560 | P=327680 | I=20480 | D=0 | Out=32767
Time=625000 | Error=2560 | P=327680 | I=20480 | D=0 | Out=32767
635000	  10	  2560	 32767	 32767
Time=635000 | Error=2560 | P=327680 | I=20480 | D=0 | Out=32767
Time=635000 | Error=2560 | P=327680 | I=20480 | D=0 | Out=32767
645000	  10	  2560	 32767	 32767
Time=645000 | Error=2560 | P=327680 | I=20480 | D=0 | Out=32767
Time=645000 | Error=2560 | P=327680 | I=20480 | D=0 | Out=32767
655000	  10	  2560	 32767	 32767
Time=655000 | Error=2560 | P=327680 | I=20480 | D=0 | Out=32767
Time=655000 | Error=2560 | P=327680 | I=20480 | D=0 | Out=32767
665000	  10	  2560	 32767	 32767
Time=665000 | Error=2560 | P=327680 | I=20480 | D=0 | Out=32767
Time=665000 | Error=2560 | P=327680 | I=20480 | D=0 | Out=32767
675000	  10	  2560	 32767	 32767
Time=675000 | Error=2560 | P=327680 | I=20480 | D=0 | Out=32767
Time=675000 | Error=2560 | P=327680 | I=20480 | D=0 | Out=32767
685000	  10	  2560	 32767	 32767
Time=685000 | Error=2560 | P=327680 | I=20480 | D=0 | Out=32767
Time=685000 | Error=2560 | P=327680 | I=20480 | D=0 | Out=32767
695000	  10	  2560	 32767	 32767
Time=695000 | Error=2560 | P=327680 | I=20480 | D=0 | Out=32767
Time=695000 | Error=2560 | P=327680 | I=20480 | D=0 | Out=32767
705000	  10	  2560	 32767	 32767
Time=705000 | Error=2560 | P=327680 | I=20480 | D=0 | Out=32767
Time=705000 | Error=2560 | P=327680 | I=20480 | D=0 | Out=32767
715000	  10	  2560	 32767	 32767
Time=715000 | Error=2560 | P=327680 | I=20480 | D=0 | Out=32767
Time=715000 | Error=2560 | P=327680 | I=20480 | D=0 | Out=32767
725000	  10	  2560	 32767	 32767
Time=725000 | Error=2560 | P=327680 | I=20480 | D=0 | Out=32767
Time=725000 | Error=2560 | P=327680 | I=20480 | D=0 | Out=32767
735000	  10	  2560	 32767	 32767
Time=735000 | Error=2560 | P=327680 | I=20480 | D=0 | Out=32767
Time=735000 | Error=2560 | P=327680 | I=20480 | D=0 | Out=32767
745000	  10	  2560	 32767	 32767
Time=745000 | Error=2560 | P=327680 | I=20480 | D=0 | Out=32767
Time=745000 | Error=2560 | P=327680 | I=20480 | D=0 | Out=32767
755000	   0	     0	 32767	 32767
Time=755000 | Error=0 | P=327680 | I=20480 | D=0 | Out=32767
Time=755000 | Error=0 | P=327680 | I=20480 | D=0 | Out=32767
765000	   0	     0	 32767	 32767
Time=765000 | Error=0 | P=0 | I=0 | D=-20480 | Out=32767
Time=765000 | Error=0 | P=0 | I=0 | D=-20480 | Out=32767
775000	   0	     0	 32767	 32767
Time=775000 | Error=0 | P=0 | I=0 | D=0 | Out=32767
Time=775000 | Error=0 | P=0 | I=0 | D=0 | Out=32767
785000	   0	     0	 32767	 32767
Time=785000 | Error=0 | P=0 | I=0 | D=0 | Out=32767
Time=785000 | Error=0 | P=0 | I=0 | D=0 | Out=32767
795000	   0	     0	 32767	 32767
Time=795000 | Error=0 | P=0 | I=0 | D=0 | Out=32767
Time=795000 | Error=0 | P=0 | I=0 | D=0 | Out=32767
805000	   0	     0	 32767	 32767
Time=805000 | Error=0 | P=0 | I=0 | D=0 | Out=32767
Time=805000 | Error=0 | P=0 | I=0 | D=0 | Out=32767
815000	   0	     0	 32767	 32767
Time=815000 | Error=0 | P=0 | I=0 | D=0 | Out=32767
Time=815000 | Error=0 | P=0 | I=0 | D=0 | Out=32767
825000	   0	     0	 32767	 32767
Time=825000 | Error=0 | P=0 | I=0 | D=0 | Out=32767
Time=825000 | Error=0 | P=0 | I=0 | D=0 | Out=32767
835000	   0	     0	 32767	 32767
Time=835000 | Error=0 | P=0 | I=0 | D=0 | Out=32767
Time=835000 | Error=0 | P=0 | I=0 | D=0 | Out=32767
845000	   0	     0	 32767	 32767
Time=845000 | Error=0 | P=0 | I=0 | D=0 | Out=32767
Time=845000 | Error=0 | P=0 | I=0 | D=0 | Out=32767
855000	   0	     0	 32767	 32767
Time=855000 | Error=0 | P=0 | I=0 | D=0 | Out=32767
Time=855000 | Error=0 | P=0 | I=0 | D=0 | Out=32767
865000	   0	     0	 32767	 32767
Time=865000 | Error=0 | P=0 | I=0 | D=0 | Out=32767
Time=865000 | Error=0 | P=0 | I=0 | D=0 | Out=32767
875000	   0	     0	 32767	 32767
Time=875000 | Error=0 | P=0 | I=0 | D=0 | Out=32767
Time=875000 | Error=0 | P=0 | I=0 | D=0 | Out=32767
885000	   0	     0	 32767	 32767
Time=885000 | Error=0 | P=0 | I=0 | D=0 | Out=32767
Time=885000 | Error=0 | P=0 | I=0 | D=0 | Out=32767
895000	   0	     0	 32767	 32767
Time=895000 | Error=0 | P=0 | I=0 | D=0 | Out=32767
Time=895000 | Error=0 | P=0 | I=0 | D=0 | Out=32767
905000	   0	     0	 32767	 32767
Time=905000 | Error=0 | P=0 | I=0 | D=0 | Out=32767
Time=905000 | Error=0 | P=0 | I=0 | D=0 | Out=32767
915000	   0	     0	 32767	 32767
Time=915000 | Error=0 | P=0 | I=0 | D=0 | Out=32767
Time=915000 | Error=0 | P=0 | I=0 | D=0 | Out=32767
925000	   0	     0	 32767	 32767
Time=925000 | Error=0 | P=0 | I=0 | D=0 | Out=32767
Time=925000 | Error=0 | P=0 | I=0 | D=0 | Out=32767
935000	   0	     0	 32767	 32767
Time=935000 | Error=0 | P=0 | I=0 | D=0 | Out=32767
Time=935000 | Error=0 | P=0 | I=0 | D=0 | Out=32767
945000	   0	     0	 32767	 32767
Time=945000 | Error=0 | P=0 | I=0 | D=0 | Out=32767
Time=945000 | Error=0 | P=0 | I=0 | D=0 | Out=32767
955000	   0	     0	 32767	 32767
Time=955000 | Error=0 | P=0 | I=0 | D=0 | Out=32767
Time=955000 | Error=0 | P=0 | I=0 | D=0 | Out=32767
965000	   0	     0	 32767	 32767
Time=965000 | Error=0 | P=0 | I=0 | D=0 | Out=32767
Time=965000 | Error=0 | P=0 | I=0 | D=0 | Out=32767
975000	   0	     0	 32767	 32767
Time=975000 | Error=0 | P=0 | I=0 | D=0 | Out=32767
Time=975000 | Error=0 | P=0 | I=0 | D=0 | Out=32767
985000	   0	     0	 32767	 32767
Time=985000 | Error=0 | P=0 | I=0 | D=0 | Out=32767
Time=985000 | Error=0 | P=0 | I=0 | D=0 | Out=32767
995000	   0	     0	 32767	 32767
Time=995000 | Error=0 | P=0 | I=0 | D=0 | Out=32767
Time=995000 | Error=0 | P=0 | I=0 | D=0 | Out=32767
# exit 0
